…
```r
tathsummerUSA <- ath[which(tathsummer$NOC=='USA'),]
cleandataUSA <- tathsummerUSA %>%
  group_by(Year,Sex) %>%
summarize(gold_number = length(which(Medal=="Gold")),silver_number = length(which(Medal=="Silver")),bronze_number = length(which(Medal=="Bronze"))) 
cleandataUSA
```

```
## # A tibble: 65 x 5
## # Groups:   Year [35]
##     Year Sex   gold_number silver_number bronze_number
##    <int> <fct>       <int>         <int>         <int>
##  1  1896 M               0             0             0
##  2  1900 M               4             8             2
##  3  1904 M               1             3             1
##  4  1906 M               1             1             3
##  5  1908 F               0             0             0
##  6  1908 M               5             3             4
##  7  1912 M              10             8            10
##  8  1920 F               0             0             1
##  9  1920 M               6             8             8
## 10  1924 F               0             0             0
## # … with 55 more rows
```
…
